acq0002.csv

#Digilent WaveForms Oscilloscope Acquisition
#Device Name: Discovery2
#Serial Number: SN:210321A963CD
#Date Time: 2022-02-24 14:41:31.894
#Sample rate: 363636Hz
#Samples: 8192
#Trigger: Source: Channel 1 Type: Edge Condition: Rising Level: 0 V Hyst.: Auto HoldOff: 100 ns
#Channel 1: Range: 500 mV/div Offset: 0 V Attenuation: 1 X Sample Mode: Average
#Channel 2: Range: 500 mV/div Offset: 0 V Attenuation: 1 X Sample Mode: Average
#Wavegen Channel 1: Running
#Mode: Simple
#Type: Square
#Frequency: 200 Hz
#Period: 5 ms
#Amplitude: 1 V
#Offset: 0 V
#Symmetry: 50 %
#Phase: 0 ?

Time (s),Channel 1 (V),Channel 2 (V)
-0.022261874698633805,-1.0016828001400824,-1.3019876694452843
-0.02225912469863381,-1.0016828001400824,-1.2243093011885267
-0.022256374698633806,-1.002686927858465,-1.1459554688597937
-0.022253624698633807,-1.0020175093795431,-1.0669261724593324
-0.022250874698633807,-1.002352218619004,-0.9892478042025042
-0.022248124698633805,-1.0026869278584651,-0.9135958281609688
-0.022245374698633805,-1.003356346337387,-0.8409834404425981
-0.022242624698633806,-1.0040257648163085,-0.7724238371550497
-0.022239874698633807,-1.0036910555768477,-0.7092679464418606
-0.022237124698633808,-1.003356346337387,-0.6518535003389876
-0.022234374698633805,-1.0036910555768477,-0.601193694954031
-0.022231624698633805,-1.0036910555768475,-0.5583017263948095
-0.022228874698633806,-1.0033563463373867,-0.5221643985535893
-0.022226124698633807,-1.0033563463373867,-0.4954835677175483
-0.022223374698633808,-1.0033563463373867,-0.476570573707178
-0.022220624698633805,-1.003356346337387,-0.46542541652248803
-0.022217874698633806,-1.0036910555768477,-0.4633990243070925
-0.022215124698633806,-1.0040257648163085,-0.46947820095328185
-0.022212374698633807,-1.003356346337387,-0.4836629464610505
-0.022209624698633808,-1.0030216370979261,-0.5052777967586091
-0.022206874698633805,-1.0030216370979257,-0.5333095557382858
-0.022204124698633806,-1.002686927858465,-0.568433687471808
-0.022201374698633806,-1.003021637097926,-0.6089615317797369
-0.022198624698633804,-1.0023522186190041,-0.654555356626202
-0.022195874698633808,-1.0023522186190041,-0.704201965903347
-0.022193124698633805,-1.002352218619004,-0.7568881635037022
-0.022190374698633806,-1.0020175093795431,-0.8122762173911797
-0.022187624698633807,-1.0020175093795431,-0.8683397353504813
-0.022184874698633804,-1.0016828001400824,-0.9260919134893318
-0.022182124698633808,-1.0016828001400824,-0.9831686275562537
-0.022179374698633805,-1.0013480909006212,-1.0388944134797062
-0.022176624698633806,-1.0010133816611606,-1.0925938071876875
-0.022173874698633807,-1.0006786724216996,-1.1435913446084978
-0.022171124698633804,-1.0010133816611606,-1.1912115616703538
-0.022168374698633808,-1.0010133816611606,-1.2347789943012981
-0.022165624698633805,-1.0010133816611606,-1.2736181784297846
-0.022162874698633806,-1.0010133816611606,-1.3070536499838108
-0.022160124698633807,-1.0010133816611606,-1.3354231409993609
-0.022157374698633804,-1.0006786724216994,-1.3580511874046362
-0.02215462469863381,-1.000343963182239,-1.374600057163677
-0.022151874698633806,-1.0000092539427783,-1.3847320182406766
-0.022149124698633806,-1.0010133816611606,-1.389460266743266
-0.022146374698633807,-1.0006786724216998,-1.3877716065637695
-0.022143624698633804,-1.0016828001400817,-1.3800037697380714
-0.02214087469863381,-1.0010133816611613,-1.367507684409816
-0.022138124698633806,-1.0016828001400824,-1.349607886507136
-0.022135374698633806,-1.0016828001400824,-1.3269798401018758
-0.022132624698633807,-1.0013480909006216,-1.2996235451940361
-0.022129874698633804,-1.0020175093795425,-1.269227661963046
-0.02212712469863381,-1.001348090900622,-1.2351167263372682
-0.022124374698633806,-1.0020175093795431,-1.197628470352403
-0.022121624698633807,-1.0020175093795431,-1.158789286223971
-0.022118874698633807,-1.002352218619004,-1.1185991739519598
-0.022116124698633804,-1.0026869278584647,-1.0773958655721951
-0.02211337469863381,-1.0023522186190044,-1.0358548251566249
-0.022110624698633806,-1.002686927858465,-0.9956647128845576
-0.022107874698633807,-1.0023522186190041,-0.9554746006125282
-0.022105124698633807,-1.0023522186190041,-0.9176486125918119
-0.022102374698633805,-1.0023522186190044,-0.8818490167864423
-0.02209962469863381,-1.0026869278584647,-0.8484135452324467
-0.022096874698633806,-1.0023522186190041,-0.8186931260732685
-0.022094124698633807,-1.002686927858465,-0.7926877593090141
-0.022091374698633807,-1.002686927858465,-0.7697219808678649
-0.022088624698633805,-1.0030216370979257,-0.75148445092928
-0.022085874698633805,-1.0026869278584651,-0.7369619733856074
-0.022083124698633806,-1.003021637097926,-0.7268300123086299
-0.022080374698633807,-1.0026869278584651,-0.7214262997342418
-0.022077624698633808,-1.002686927858465,-0.7207508356624408
-0.022074874698633805,-1.002352218619004,-0.7234526919496391
-0.022072124698633806,-1.0020175093795431,-0.7308827967394278
-0.022069374698633806,-1.0020175093795431,-0.7420279539241031
-0.022066624698633807,-1.0026869278584647,-0.7568881635036703
-0.022063874698633808,-1.0030216370979257,-0.775463425478136
-0.022061124698633805,-1.0026869278584647,-0.7964028117039185
-0.022058374698633806,-1.0020175093795431,-0.8203817862527655
-0.022055624698633806,-1.0020175093795431,-0.8463871530170198
-0.022052874698633804,-1.0020175093795431,-0.8740811799607973
-0.022050124698633808,-1.0020175093795431,-0.9027884030122076
-0.022047374698633805,-1.002017509379543,-0.9328465542072817
-0.022044624698633806,-1.0016828001400824,-0.9629047054023152
-0.022041874698633807,-1.0023522186190041,-0.9922873925255635
-0.022039124698633804,-1.0020175093795425,-1.0213323476129388
-0.022036374698633808,-1.0013480909006216,-1.050039570664349
-0.022033624698633805,-1.002017509379543,-1.0763826694645273
-0.022030874698633806,-1.0016828001400824,-1.1017125721569714
-0.022028124698633807,-1.0016828001400824,-1.1240028865263323
-0.022025374698633804,-1.0010133816611606,-1.144266808680313
-0.022022624698633808,-1.0010133816611606,-1.162166606582949
-0.022019874698633805,-1.0013480909006216,-1.176689084126645
-0.022017124698633806,-1.0016828001400824,-1.1885097053831188
-0.022014374698633807,-1.0016828001400824,-1.1969530062806042
-0.022011624698633804,-1.0010133816611608,-1.2026944508908963
-0.022008874698633808,-1.0013480909006212,-1.2050585751421876
-0.022006124698633805,-1.0016828001400824,-1.2040453790344898
-0.022003374698633806,-1.0016828001400824,-1.1999925946036987
-0.022000624698633807,-1.002017509379543,-1.1932379538857136
-0.021997874698633804,-1.0016828001400826,-1.1831059928087173
-0.02199512469863381,-1.002017509379543,-1.170947639516361
-0.021992374698633806,-1.0016828001400824,-1.157100626044474
-0.021989624698633806,-1.0016828001400824,-1.1408894883213025
-0.021986874698633807,-1.0016828001400824,-1.1229896904186423
-0.021984124698633804,-1.0023522186190044,-1.1037389643723488
-0.02198137469863381,-1.0026869278584647,-1.0827995781466238
-0.021978624698633806,-1.0023522186190041,-1.061522459884942
-0.021975874698633806,-1.0020175093795431,-1.0402453416232793
-0.021973124698633807,-1.0020175093795431,-1.0182927592898279
-0.021970374698633804,-1.0020175093795431,-0.9973533730640451
-0.02196762469863381,-1.0020175093795431,-0.9764139868383106
-0.021964874698633806,-1.0020175093795431,-0.9561500646843271
-0.021962124698633807,-1.0023522186190041,-0.9379125347457591
-0.021959374698633807,-1.0030216370979257,-0.9206882009148972
-0.021956624698633805,-1.0030216370979257,-0.9048147952276111
-0.02195387469863381,-1.0023522186190048,-0.8913055137916532
-0.021951124698633806,-1.003021637097926,-0.8794848925351617
-0.021948374698633807,-1.003021637097926,-0.8700283955299783
-0.021945624698633807,-1.0026869278584651,-0.8625982907401947
-0.021942874698633805,-1.0023522186190041,-0.8575323102016991
-0.021940124698633805,-1.0023522186190041,-0.8548304539145049
-0.021937374698633806,-1.0023522186190041,-0.8544927218786056
-0.021934624698633807,-1.0023522186190041,-0.8561813820581027
-0.021931874698633808,-1.0020175093795434,-0.8602341664888936
-0.021929124698633805,-1.0023522186190041,-0.8663133431350883
-0.021926374698633806,-1.002352218619004,-0.8740811799607756
-0.021923624698633806,-1.0020175093795431,-0.883875409001854
-0.021920874698633807,-1.0016828001400826,-0.8950205661865294
-0.021918124698633808,-1.002017509379543,-0.907854383550706
-0.021915374698633805,-1.0016828001400826,-0.9217013970225941
-0.021912624698633806,-1.0023522186190041,-0.9362238745662621
-0.021909874698633806,-1.0023522186190041,-0.9514218161817354
-0.021907124698633807,-1.0026869278584647,-0.9666197577972018
-0.021904374698633808,-1.0016828001400828,-0.9824931634844736
-0.021901624698633805,-1.0013480909006216,-0.9976911050999612
-0.021898874698633806,-1.0016828001400824,-1.0132267787513267
-0.021896124698633807,-1.0013480909006214,-1.0277492562950012
-0.021893374698633804,-1.0016828001400824,-1.0422717338386869
-0.021890624698633808,-1.0016828001400824,-1.0544300871310488
-0.021887874698633805,-1.0010133816611608,-1.0662507083875383
-0.021885124698633806,-1.0016828001400824,-1.0763826694645158
-0.021882374698633807,-1.0020175093795431,-1.0858391664696994
-0.021879624698633804,-1.002352218619004,-1.093607003295391
-0.021876874698633808,-1.0020175093795434,-1.0996861799415723
-0.021874124698633805,-1.0016828001400826,-1.104414428444168
-0.021871374698633806,-1.0020175093795431,-1.1071162847313618
-0.021868624698633807,-1.0010133816611606,-1.1077917488031608
-0.021865874698633804,-1.0010133816611613,-1.107454016767259
-0.021863124698633808,-1.0016828001400817,-1.1050898925159676
-0.021860374698633805,-1.0016828001400826,-1.1017125721569692
-0.021857624698633806,-1.0020175093795431,-1.0966465916184802
-0.021854874698633807,-1.0016828001400826,-1.0895542188645961
-0.021852124698633804,-1.002017509379543,-1.081786382038899
-0.02184937469863381,-1.0016828001400826,-1.0736808131773279
-0.021846624698633806,-1.0016828001400822,-1.0642243161721325
-0.021843874698633806,-1.0013480909006214,-1.0537546230592556
-0.021841124698633807,-1.002017509379543,-1.0426094658745804
-0.021838374698633804,-1.0020175093795434,-1.0314643086898845
-0.02183562469863381,-1.002352218619004,-1.0203191515052246
-0.021832874698633806,-1.0020175093795431,-1.0088362622846345
-0.021830124698633806,-1.0020175093795431,-0.9976911050999541
-0.021827374698633807,-1.002352218619004,-0.986883679951178
-0.021824624698633804,-1.0020175093795431,-0.9767517188741864
-0.02182187469863381,-1.0020175093795431,-0.9669574898331169
-0.021819124698633806,-1.0020175093795431,-0.9581764568997235
-0.021816374698633807,-1.0020175093795431,-0.9504086200740371
-0.021813624698633807,-1.0026869278584647,-0.9429785152842535
-0.021810874698633805,-1.002686927858465,-0.9368993386380587
-0.02180812469863381,-1.002686927858465,-0.9321710901354735
-0.021805374698633806,-1.003021637097926,-0.9284560377405757
-0.021802624698633807,-1.0023522186190041,-0.9260919134892799
-0.021799874698633807,-1.0026869278584647,-0.9250787173815821
-0.021797124698633805,-1.0026869278584647,-0.9247409853456829
-0.02179437469863381,-1.0023522186190044,-0.9264296455251777
-0.021791624698633806,-1.0020175093795431,-0.9284560377405757
-0.021788874698633807,-1.0020175093795431,-0.9314956260636703
-0.021786124698633808,-1.0016828001400826,-0.9355484104944614
-0.021783374698633805,-1.0020175093795434,-0.940614391032957
-0.021780624698633805,-1.0026869278584647,-0.9463558356432471
-0.021777874698633806,-1.0020175093795431,-0.952772744325333
-0.021775124698633807,-1.002352218619004,-0.9598651170792173
-0.021772374698633808,-1.0016828001400826,-0.9679706859408026
-0.021769624698633805,-1.0023522186190041,-0.9764139868382951
-0.021766874698633806,-1.0023522186190041,-0.9841818236639817
-0.021764124698633806,-1.0023522186190041,-0.992625124561463
-0.021761374698633807,-1.0020175093795434,-1.0007306934230449
-0.021758624698633808,-1.002352218619004,-1.0088362622846307
-0.021755874698633805,-1.0020175093795431,-1.0162663670744247
-0.021753124698633806,-1.0020175093795431,-1.0236964718642083
-0.021750374698633806,-1.0023522186190041,-1.0301133805462972
-0.021747624698633804,-1.0020175093795431,-1.0365302892283905
-0.021744874698633808,-1.0020175093795431,-1.0415962697668748
-0.021742124698633805,-1.0016828001400824,-1.046999982341269
-0.021739374698633806,-1.0016828001400824,-1.0503773027002616
-0.021736624698633807,-1.0016828001400824,-1.0534168910233561
-0.021733874698633804,-1.002017509379543,-1.0554432832387541
-0.021731124698633808,-1.0016828001400826,-1.0571319434182491
-0.021728374698633805,-1.0023522186190044,-1.0571319434182498
-0.021725624698633806,-1.003021637097926,-1.0571319434182498
-0.021722874698633807,-1.0020175093795431,-1.055781015274652
-0.021720124698633804,-1.0023522186190041,-1.053416891023354
-0.021717374698633808,-1.0023522186190041,-1.0510527667720626
-0.021714624698633805,-1.0020175093795434,-1.0473377143771652
-0.021711874698633806,-1.0023522186190041,-1.0436226619822735
-0.021709124698633807,-1.0013480909006214,-1.0395698775514806
-0.021706374698633804,-1.0023522186190041,-1.0341661649770852
-0.02170362469863381,-1.0023522186190041,-1.0287624524027044
-0.021700874698633806,-1.0020175093795436,-1.023021007792407
-0.021698124698633806,-1.003021637097926,-1.0172795631821197
-0.021695374698633807,-1.0023522186190044,-1.011200386535933
-0.021692624698633804,-1.002352218619004,-1.0054589419256346
-0.02168987469863381,-1.0020175093795434,-0.9990420332435576
-0.021687124698633806,-1.0023522186190041,-0.9933005886332618
-0.021684374698633806,-1.0023522186190041,-0.9885723401306701
-0.021681624698633807,-1.0023522186190041,-0.9831686275562821
-0.021678874698633804,-1.0026869278584647,-0.9791158431254827
-0.02167612469863381,-1.0023522186190044,-0.9747253266587984
-0.021673374698633806,-1.0020175093795431,-0.971010274263901
-0.021670624698633806,-1.002686927858465,-0.9676329539049069
-0.021667874698633807,-1.0023522186190044,-0.9649310976177129
-0.021665124698633804,-1.002352218619004,-0.9635801694741133
-0.02166237469863381,-1.001682800140083,-0.9622292413305176
-0.021659624698633806,-1.0020175093795431,-0.9615537772587176
-0.021656874698633807,-1.0020175093795431,-0.9612160452228181
-0.021654124698633807,-1.0020175093795431,-0.9615537772587175
-0.021651374698633805,-1.002352218619004,-0.9635801694741146
-0.02164862469863381,-1.0020175093795434,-0.9649310976177105
-0.021645874698633806,-1.0020175093795431,-0.9672952218690075
-0.021643124698633807,-1.0020175093795431,-0.9699970781562027
-0.021640374698633807,-1.0020175093795431,-0.9730366664792961
-0.021637624698633805,-1.002017509379543,-0.9767517188741924
-0.021634874698633805,-1.0016828001400824,-0.9801290392331868
-0.021632124698633806,-1.0016828001400824,-0.9841818236639778
-0.021629374698633807,-1.0016828001400824,-0.9882346080947688
-0.021626624698633808,-1.002017509379543,-0.992625124561461
-0.021623874698633805,-1.0023522186190041,-0.9973533730640564
-0.021621124698633806,-1.002352218619004,-1.00106842545895
-0.021618374698633806,-1.0020175093795431,-1.005121209889741
-0.021615624698633807,-1.0016828001400826,-1.0095117263564313
-0.021612874698633808,-1.0013480909006216,-1.012889046715426
-0.021610124698633805,-1.0016828001400824,-1.016266367074423
-0.021607374698633806,-1.0016828001400824,-1.0196436874334156
-0.021604624698633806,-1.0016828001400824,-1.0223455437206108
-0.021601874698633804,-1.002352218619004,-1.024371935936009
-0.021599124698633808,-1.0020175093795434,-1.0263983281514029
-0.021596374698633805,-1.0016828001400824,-1.027749256295002
-0.021593624698633806,-1.0016828001400824,-1.029100184438599
-0.021590874698633807,-1.0016828001400824,-1.0297756485103977
-0.021588124698633804,-1.002017509379543,-1.0304511125821958
-0.021585374698633808,-1.0016828001400826,-1.029775648510398
-0.021582624698633805,-1.002017509379543,-1.0294379164744976
-0.021579874698633806,-1.0016828001400824,-1.0277492562950012
-0.021577124698633807,-1.0020175093795431,-1.026736060187303
-0.021574374698633804,-1.002352218619004,-1.0250474000078038
-0.021571624698633808,-1.0020175093795434,-1.0226832757565114
-0.021568874698633805,-1.002017509379543,-1.0206568835411125
-0.021566124698633806,-1.0016828001400824,-1.0179550272539184
-0.021563374698633807,-1.0016828001400824,-1.0152531709667232
-0.021560624698633804,-1.0010133816611613,-1.0122135826436258
-0.021557874698633808,-1.0016828001400817,-1.0091739943205367
-0.021555124698633805,-1.002017509379543,-1.0057966739615385
-0.021552374698633806,-1.0016828001400824,-1.0030948176743446
-0.021549624698633807,-1.002352218619004,-1.0000552293512512
-0.021546874698633804,-1.0023522186190035,-0.9973533730640519
-0.02154412469863381,-1.001682800140083,-0.9943137847409628
-0.021541374698633806,-1.0016828001400824,-0.991949660489663
-0.021538624698633806,-1.0016828001400824,-0.9895855362383683
-0.021535874698633807,-1.002017509379543,-0.9872214119870736
-0.021533124698633804,-1.0016828001400824,-0.9855327518075739
-0.02153037469863381,-1.0016828001400824,-0.98384409162808
-0.021527624698633806,-1.0020175093795431,-0.9824931634844808
-0.021524874698633806,-1.0023522186190041,-0.9814799673767826
-0.021522124698633807,-1.0023522186190041,-0.980804503304984
-0.021519374698633804,-1.0020175093795434,-0.9804667712690844
-0.02151662469863381,-1.002352218619004,-0.9808045033049834
-0.021513874698633806,-1.0020175093795431,-0.9811422353408832
-0.021511124698633807,-1.0020175093795431,-0.9814799673767826
-0.021508374698633807,-1.0020175093795431,-0.9821554314485811
-0.021505624698633805,-1.002017509379543,-0.9835063595921798
-0.02150287469863381,-1.0016828001400826,-0.9851950197716745
-0.021500124698633806,-1.0013480909006214,-0.9868836799511731
-0.021497374698633807,-1.0023522186190041,-0.9885723401306701
-0.021494624698633807,-1.0016828001400826,-0.9902610003101664
-0.021491874698633805,-1.0026869278584647,-0.9926251245614641
-0.021489124698633805,-1.0020175093795431,-0.99498924881276
-0.021486374698633806,-1.0020175093795431,-0.9973533730640547
-0.021483624698633807,-1.0016828001400824,-0.9990420332435517
-0.021480874698633808,-1.0016828001400824,-1.0014061574948465
-0.021478124698633805,-1.0020175093795431,-1.0041080137820435
-0.021475374698633806,-1.002017509379543,-1.0057966739615405
-0.021472624698633806,-1.0013480909006214,-1.0074853341410368
-0.021469874698633807,-1.0023522186190037,-1.0091739943205333
-0.021467124698633808,-1.0016828001400826,-1.0108626545000303
-0.021464374698633805,-1.002352218619004,-1.0125513146795286
-0.021461624698633806,-1.0020175093795431,-1.0139022428231257
-0.021458874698633806,-1.0023522186190041,-1.0145777068949244
-0.021456124698633807,-1.0020175093795434,-1.0155909030026222
-0.021453374698633808,-1.0013480909006216,-1.0162663670744212
-0.021450624698633805,-1.0013480909006216,-1.016604099110321
-0.021447874698633806,-1.0016828001400824,-1.016604099110321
-0.021445124698633806,-1.0020175093795431,-1.0162663670744214
-0.021442374698633804,-1.0016828001400824,-1.015928635038522
-0.021439624698633808,-1.0016828001400824,-1.015590903002623
-0.021436874698633805,-1.002017509379543,-1.014577706894924
-0.021434124698633806,-1.0016828001400824,-1.0135645107872262
-0.021431374698633807,-1.0013480909006214,-1.0122135826436285
-0.021428624698633804,-1.0016828001400824,-1.0115381185718288
-0.021425874698633808,-1.0016828001400824,-1.010524922464132
-0.021423124698633805,-1.0016828001400828,-1.0084985302487344
-0.021420374698633806,-1.002686927858465,-1.006809870069238
-0.021417624698633807,-1.0020175093795431,-1.005121209889741
-0.021414874698633804,-1.0016828001400824,-1.0037702817461418
-0.021412124698633808,-1.0016828001400824,-1.002081621566648
-0.021409374698633805,-1.0020175093795434,-1.0000552293512492
-0.021406624698633806,-1.0023522186190041,-0.9987043012076523
-0.021403874698633807,-1.0020175093795431,-0.9973533730640547
-0.021401124698633804,-1.0016828001400824,-0.9956647128845567
-0.02139837469863381,-1.0016828001400824,-0.9946515167768604
